…
ashDetections

## Simple feature collection with 4525 features and 2 fields
## geometry type:  POINT
## dimension:      XY
## bbox:           xmin: -13780130 ymin: 3862847 xmax: -7893345 ymax: 6176657
## epsg (SRID):    3857
## proj4string:    +proj=merc +a=6378137 +b=6378137 +lat_ts=0.0 +lon_0=0.0 +x_0=0.0 +y_0=0 +k=1.0 +units=m +nadgrids=@null +wktext +no_defs
## # A tibble: 4,525 x 3
##    observedDate observedYear            geometry
##    <date>              <dbl>         <POINT [m]>
##  1 2017-07-14           2017 (-10369248 5639078)
##  2 2017-11-07           2017 (-10364322 5650477)
##  3 2017-11-27           2017 (-10356277 5627879)
##  4 2017-11-27           2017 (-10355460 5627775)
##  5 2017-10-12           2017 (-10372090 5604497)
##  6 2017-10-23           2017 (-10254975 5904372)
##  7 2017-10-04           2017  (-9933805 6176657)
##  8 2017-10-18           2017 (-10374004 5592409)
##  9 2017-10-18           2017 (-10374041 5592988)
## 10 2017-10-18           2017 (-10373992 5592990)
## # ... with 4,515 more rows
…
